D:\Studia\Programowanie obiektowe\ForumSaver\src\main\java\gui\controllers\TopicListController.java
D:\Studia\Programowanie obiektowe\ForumSaver\src\main\java\gui\AppStart.java
D:\Studia\Programowanie obiektowe\ForumSaver\src\main\java\gui\controllers\NewForumParserController.java
D:\Studia\Programowanie obiektowe\ForumSaver\src\main\java\parser\models\pages\Page.java
D:\Studia\Programowanie obiektowe\ForumSaver\src\main\java\gui\controllers\PostCreatorController.java
D:\Studia\Programowanie obiektowe\ForumSaver\src\main\java\parser\db\DatabaseService.java
D:\Studia\Programowanie obiektowe\ForumSaver\src\main\java\parser\DataParser.java
D:\Studia\Programowanie obiektowe\ForumSaver\src\main\java\gui\controllers\PostListController.java
D:\Studia\Programowanie obiektowe\ForumSaver\src\main\java\gui\controllers\TopicParserController.java
D:\Studia\Programowanie obiektowe\ForumSaver\src\main\java\parser\models\pages\TopicPage.java
D:\Studia\Programowanie obiektowe\ForumSaver\src\main\java\gui\controllers\AppStartController.java
D:\Studia\Programowanie obiektowe\ForumSaver\src\main\java\parser\models\elements\Forum.java
D:\Studia\Programowanie obiektowe\ForumSaver\src\main\java\gui\controllers\ForumTreeViewerController.java
D:\Studia\Programowanie obiektowe\ForumSaver\src\main\java\gui\controllers\TopicCreatorController.java
D:\Studia\Programowanie obiektowe\ForumSaver\src\main\java\parser\models\elements\Post.java
D:\Studia\Programowanie obiektowe\ForumSaver\src\main\java\parser\models\pages\ForumPage.java
D:\Studia\Programowanie obiektowe\ForumSaver\src\main\java\parser\models\elements\Topic.java
D:\Studia\Programowanie obiektowe\ForumSaver\src\main\java\parser\helpers\HttpService.java
